Data Visualization Notes
…
install.packages(my_packages, repos = "http://cran.rstudio.com")

Set Up Your Project and Load Libraries

To begin we must load some libraries we will be using. If we do not load them, R will not be able to find the functions contained in these libraries. The tidyverse includes ggplot and other tools. We also load the socviz and gapminder libraries.

Notice that here, the braces at the start of the code chunk have some additional options set in them. There is the language, r, as before. This is required. Then there is the word setup, which is a label for your code chunk. Labels are useful to briefly say what the chunk does. Label names must be unique (no two chunks in the same document can have the same label) and cannot contain spaces. Then, after the comma, an option is set: include=FALSE. This tells R to run this code but not to include the output in the final document.

When you click the Knit button a document will be generated that includes both content as well as the output of any embedded R code chunks within the document. You can embed an R code chunk like this:

gapminder

## # A tibble: 1,704 × 6
##    country     continent  year lifeExp      pop gdpPercap
##    <fct>       <fct>     <int>   <dbl>    <int>     <dbl>
##  1 Afghanistan Asia       1952    28.8  8425333      779.
##  2 Afghanistan Asia       1957    30.3  9240934      821.
##  3 Afghanistan Asia       1962    32.0 10267083      853.
##  4 Afghanistan Asia       1967    34.0 11537966      836.
##  5 Afghanistan Asia       1972    36.1 13079460      740.
##  6 Afghanistan Asia       1977    38.4 14880372      786.
##  7 Afghanistan Asia       1982    39.9 12881816      978.
##  8 Afghanistan Asia       1987    40.8 13867957      852.
##  9 Afghanistan Asia       1992    41.7 16317921      649.
## 10 Afghanistan Asia       1997    41.8 22227415      635.
## # … with 1,694 more rows
…
## Rows: 238 Columns: 21

## ── Column specification ───────────────────────────────────────────────────────────────────────────────────────────────────
## Delimiter: ","
## chr  (7): country, world, opt, consent.law, consent.practice, consistent, ccode
## dbl (14): year, donors, pop, pop.dens, gdp, gdp.lag, health, health.lag, pubhealth, roads, cerebvas, assault, external,...

## 
## ℹ Use `spec()` to retrieve the full column specification for this data.
## ℹ Specify the column types or set `show_col_types = FALSE` to quiet this message.

library(gapminder)
gapminder

## # A tibble: 1,704 × 6
##    country     continent  year lifeExp      pop gdpPercap
##    <fct>       <fct>     <int>   <dbl>    <int>     <dbl>
##  1 Afghanistan Asia       1952    28.8  8425333      779.
##  2 Afghanistan Asia       1957    30.3  9240934      821.
##  3 Afghanistan Asia       1962    32.0 10267083      853.
##  4 Afghanistan Asia       1967    34.0 11537966      836.
##  5 Afghanistan Asia       1972    36.1 13079460      740.
##  6 Afghanistan Asia       1977    38.4 14880372      786.
##  7 Afghanistan Asia       1982    39.9 12881816      978.
##  8 Afghanistan Asia       1987    40.8 13867957      852.
##  9 Afghanistan Asia       1992    41.7 16317921      649.
## 10 Afghanistan Asia       1997    41.8 22227415      635.
## # … with 1,694 more rows
…
