Self Evaluation Project
…
# merge morning_rt with all_dat
all_morning_rt <- merge(morning_rt, all_dat,by="Date", all.x=T) %>%
  arrange(desc(Date))

# Drop Name & Created column
dat_date =  filter(all_dat, Date!=0) # Exclude wrong date format

# Only include multiple-related(social, tech, satisfaction, overall, etc)
  # Multiple data length: 53
multiple_dat = filter(all_dat, Productivity!=0)

all_dat

## # A tibble: 460 × 20
##    Date    Finished Multiple Phone_pickups Screen_time Drink Key_words Meditation Mentality
##    <chr>      <dbl>    <dbl>         <dbl>       <dbl> <dbl> <chr>          <dbl>     <dbl>
##  1 9/17/20        8        7            56         390    NA 0                  0         0
##  2 9/18/20       11        3           125         211     0 0                  0         0
##  3 9/22/20       13        5            57         271     0 0                  7         0
##  4 9/23/20       16        4           102         223     0 0                 10         0
##  5 9/24/20       11        4            80         309     0 0                  6         0
##  6 9/25/20       13        5            97         252     0 0                 13         0
##  7 9/26/20       11        4            51         237     0 0                  8         0
##  8 9/27/20        6        4            60         338     0 0                  0         0
##  9 9/28/20        9        5            82         257     0 0                 10         0
## 10 9/29/20        6        5           123         326     0 0                 10         0
## # … with 450 more rows, and 11 more variables: Satisfaction <dbl>, Reading <dbl>,
## #   Productivity <dbl>, Rise_time <dbl>, Run <dbl>, Social <dbl>, Tech <dbl>, Total <dbl>,
## #   Total_todo <dbl>, work_finished <dbl>, Tot_diff <dbl>
…
